<?xml version="1.0" encoding="UTF-8" standalone="no"?>
<!-- Created with Inkscape (http://www.inkscape.org/) -->

<svg
   xmlns:dc="http://purl.org/dc/elements/1.1/"
   xmlns:cc="http://creativecommons.org/ns#"
   xmlns:rdf="http://www.w3.org/1999/02/22-rdf-syntax-ns#"
   xmlns:svg="http://www.w3.org/2000/svg"
   xmlns="http://www.w3.org/2000/svg"
   xmlns:xlink="http://www.w3.org/1999/xlink"
   xmlns:sodipodi="http://sodipodi.sourceforge.net/DTD/sodipodi-0.dtd"
   xmlns:inkscape="http://www.inkscape.org/namespaces/inkscape"
   version="1.1"
   id="svg2158"
   width="1365.3333"
   height="1365.3333"
   viewBox="0 0 1365.3333 1365.3333"
   sodipodi:docname="CharaCleanBody-tex-v001.svg"
   inkscape:version="0.92.4 (5da689c313, 2019-01-14)"
   inkscape:export-filename="D:\GGJ2019\Foyer\Assets\Textures\CharacterCleanBody.png"
   inkscape:export-xdpi="72"
   inkscape:export-ydpi="72">
  <metadata
     id="metadata2164">
    <rdf:RDF>
      <cc:Work
         rdf:about="">
        <dc:format>image/svg+xml</dc:format>
        <dc:type
           rdf:resource="http://purl.org/dc/dcmitype/StillImage" />
        <dc:title></dc:title>
      </cc:Work>
    </rdf:RDF>
  </metadata>
  <defs
     id="defs2162">
    <linearGradient
       inkscape:collect="always"
       id="linearGradient2730">
      <stop
         style="stop-color:#f05930;stop-opacity:1"
         offset="0"
         id="stop2726" />
      <stop
         style="stop-color:#eb9547;stop-opacity:1"
         offset="1"
         id="stop2728" />
    </linearGradient>
    <linearGradient
       inkscape:collect="always"
       xlink:href="#linearGradient2730"
       id="linearGradient2732"
       x1="777.25812"
       y1="31.721952"
       x2="777.25812"
       y2="1287.6074"
       gradientUnits="userSpaceOnUse" />
  </defs>
  <sodipodi:namedview
     pagecolor="#ffffff"
     bordercolor="#666666"
     borderopacity="1"
     objecttolerance="10"
     gridtolerance="10"
     guidetolerance="10"
     inkscape:pageopacity="0"
     inkscape:pageshadow="2"
     inkscape:window-width="1920"
     inkscape:window-height="1001"
     id="namedview2160"
     showgrid="false"
     inkscape:zoom="0.34570315"
     inkscape:cx="1003.7641"
     inkscape:cy="756.2736"
     inkscape:window-x="-9"
     inkscape:window-y="-9"
     inkscape:window-maximized="1"
     inkscape:current-layer="svg2158" />
  <rect
     y="0"
     x="0"
     height="1365.3333"
     width="1365.3333"
     id="rect2074"
     style="fill:url(#linearGradient2732);fill-opacity:1;stroke:none;stroke-width:5;stroke-miterlimit:4;stroke-dasharray:none;stroke-opacity:1"
     inkscape:export-filename="D:\GGJ2019\Foyer\Assets\Textures\CharacterCleanBody.png"
     inkscape:export-xdpi="72"
     inkscape:export-ydpi="72" />
  <image
     sodipodi:absref="D:\GGJ2019\Foyer\Graphics\CharaCleanBody-uv-v001.png"
     xlink:href="CharaCleanBody-uv-v001.png"
     y="0"
     x="1472.3615"
     id="image2166"
     preserveAspectRatio="none"
     height="1365.3333"
     width="1365.3333" />
  <path
     style="fill:#3e4551;fill-opacity:1;stroke:none;stroke-width:2.93358254;stroke-miterlimit:4;stroke-dasharray:none;stroke-opacity:1"
     d="m 453.57087,464.95958 a 81.30537,81.30537 0 0 0 -81.30607,81.30493 81.30537,81.30537 0 0 0 2.395,19.2184 81.30537,81.30537 0 0 1 78.91107,-62.1209 81.30537,81.30537 0 0 1 78.91108,62.08652 81.30537,81.30537 0 0 0 2.39385,-19.18402 81.30537,81.30537 0 0 0 -81.30493,-81.30493 z"
     id="path2751"
     inkscape:connector-curvature="0" />
  <path
     inkscape:connector-curvature="0"
     id="path2767"
     d="m 687.76988,464.95958 a 81.30537,81.30537 0 0 1 81.30607,81.30493 81.30537,81.30537 0 0 1 -2.395,19.2184 81.30537,81.30537 0 0 0 -78.91107,-62.1209 81.30537,81.30537 0 0 0 -78.91108,62.08652 81.30537,81.30537 0 0 1 -2.39385,-19.18402 81.30537,81.30537 0 0 1 81.30493,-81.30493 z"
     style="fill:#3e4551;fill-opacity:1;stroke:none;stroke-width:2.93358254;stroke-miterlimit:4;stroke-dasharray:none;stroke-opacity:1" />
</svg>
