<?xml version="1.0" encoding="UTF-8" standalone="no"?>
<!-- Created with Inkscape (http://www.inkscape.org/) -->

<svg
   xmlns:dc="http://purl.org/dc/elements/1.1/"
   xmlns:cc="http://creativecommons.org/ns#"
   xmlns:rdf="http://www.w3.org/1999/02/22-rdf-syntax-ns#"
   xmlns:svg="http://www.w3.org/2000/svg"
   xmlns="http://www.w3.org/2000/svg"
   xmlns:sodipodi="http://sodipodi.sourceforge.net/DTD/sodipodi-0.dtd"
   xmlns:inkscape="http://www.inkscape.org/namespaces/inkscape"
   width="150"
   height="150"
   viewBox="0 0 39.687502 39.6875"
   version="1.1"
   id="svg867"
   inkscape:version="0.92.4 (5da689c313, 2019-01-14)"
   sodipodi:docname="HandPointer-v001.svg"
   inkscape:export-filename="D:\GGJ2019\Foyer\Assets\Textures\HoldPointer.png"
   inkscape:export-xdpi="20.48"
   inkscape:export-ydpi="20.48">
  <defs
     id="defs861" />
  <sodipodi:namedview
     id="base"
     pagecolor="#ffffff"
     bordercolor="#666666"
     borderopacity="1.0"
     inkscape:pageopacity="0.0"
     inkscape:pageshadow="2"
     inkscape:zoom="1.979899"
     inkscape:cx="27.461045"
     inkscape:cy="61.574731"
     inkscape:document-units="mm"
     inkscape:current-layer="layer1"
     showgrid="false"
     fit-margin-top="0"
     fit-margin-left="0"
     fit-margin-right="0"
     fit-margin-bottom="0"
     units="px"
     inkscape:window-width="1920"
     inkscape:window-height="1001"
     inkscape:window-x="-9"
     inkscape:window-y="-9"
     inkscape:window-maximized="1" />
  <metadata
     id="metadata864">
    <rdf:RDF>
      <cc:Work
         rdf:about="">
        <dc:format>image/svg+xml</dc:format>
        <dc:type
           rdf:resource="http://purl.org/dc/dcmitype/StillImage" />
        <dc:title></dc:title>
      </cc:Work>
    </rdf:RDF>
  </metadata>
  <g
     inkscape:label="Calque 1"
     inkscape:groupmode="layer"
     id="layer1"
     transform="translate(96.450772,-154.65563)">
    <path
       style="fill:#ffffff;fill-opacity:1;stroke:#3e4551;stroke-width:0.99749297;stroke-linecap:butt;stroke-linejoin:miter;stroke-miterlimit:4;stroke-dasharray:none;stroke-opacity:1"
       d="m -85.149523,177.09342 -9.92568,-6.30713 3.76068,-5.15825 9.993952,5.92348 0.624826,-12.75084 7.154104,0.20151 -2.740828,12.75085 1.785074,-0.53542 5.329384,-12.88234 5.642682,1.71295 -4.696179,13.92157 7.884762,-6.32355 2.418278,5.94495 -7.683232,4.1068 -3.425906,11.88991 -16.928017,-2.41828 z"
       id="path5130"
       inkscape:connector-curvature="0"
       sodipodi:nodetypes="ccccccccccccccccc" />
  </g>
</svg>
